…
Forgein
```

    ## # A tibble: 5,800 × 4
    ##    code  name            year forgein_perc
    ##    <chr> <chr>          <dbl>        <dbl>
    ##  1 0114  Upplands Väsby  2002         27.1
    ##  2 0114  Upplands Väsby  2003         27.6
    ##  3 0114  Upplands Väsby  2004         28.0
    ##  4 0114  Upplands Väsby  2005         28.5
    ##  5 0114  Upplands Väsby  2006         28.8
    ##  6 0114  Upplands Väsby  2007         29.3
    ##  7 0114  Upplands Väsby  2008         30.0
    ##  8 0114  Upplands Väsby  2009         30.6
    ##  9 0114  Upplands Väsby  2010         31.4
    ## 10 0114  Upplands Väsby  2011         32.6
    ## # … with 5,790 more rows
…
Inkomst
```

    ## # A tibble: 6,380 × 4
    ## # Groups:   code, name [290]
    ##    code  name            year income
    ##    <chr> <chr>          <dbl>  <dbl>
    ##  1 0114  Upplands Väsby  1999   16.3
    ##  2 0114  Upplands Väsby  2000   17.1
    ##  3 0114  Upplands Väsby  2001   17.9
    ##  4 0114  Upplands Väsby  2002   18.3
    ##  5 0114  Upplands Väsby  2003   18.7
    ##  6 0114  Upplands Väsby  2004   18.9
    ##  7 0114  Upplands Väsby  2005   19.3
    ##  8 0114  Upplands Väsby  2006   19.8
    ##  9 0114  Upplands Väsby  2007   20.5
    ## 10 0114  Upplands Väsby  2008   21.3
    ## # … with 6,370 more rows
…
Brott
```

    ## # A tibble: 6,380 × 3
    ##    name   year viol_crime
    ##    <chr> <dbl>      <dbl>
    ##  1 Ale    2000       433.
    ##  2 Ale    2001       359.
    ##  3 Ale    2002       426.
    ##  4 Ale    2003       350.
    ##  5 Ale    2004       384.
    ##  6 Ale    2005       523.
    ##  7 Ale    2006       556.
    ##  8 Ale    2007       543.
    ##  9 Ale    2008       703.
    ## 10 Ale    2009       661.
    ## # … with 6,370 more rows
…
Parti
```

    ## # A tibble: 290 × 4
    ## # Groups:   code [290]
    ##    KOMMUNKOD code  name           largest_party
    ##        <dbl> <chr> <chr>          <chr>        
    ##  1        14 0114  Upplands Väsby S            
    ##  2        15 0115  Vallentuna     M            
    ##  3        17 0117  Österåker      M            
    ##  4        20 0120  Värmdö         M            
    ##  5        23 0123  Järfälla       S            
    ##  6        25 0125  Ekerö          M            
    ##  7        26 0126  Huddinge       S            
    ##  8        27 0127  Botkyrka       S            
    ##  9        28 0128  Salem          M            
    ## 10        36 0136  Haninge        S            
    ## # … with 280 more rows
…
# Tar ut data för samtliga
Gymnasium <- gymnasium3 %>%
  rename(
    "not_qualified_perc" = "Andel elever (%) ej behöriga",
    "code" = "Kommun-kod",
    "name" = "Kommun",
    ) %>%
  filter(`Kön` == "Samtliga" & `Typ av huvudman` == "Samtliga") %>%
  select(code, name, year, not_qualified_perc) 

Gymnasium
```

    ## # A tibble: 1,449 × 4
    ##    code  name        year not_qualified_perc
    ##    <chr> <chr>      <dbl>              <dbl>
    ##  1 1440  Ale         2017               19.3
    ##  2 1489  Alingsås    2017               13.5
    ##  3 0764  Alvesta     2017               29.6
    ##  4 0604  Aneby       2017               26.7
    ##  5 1984  Arboga      2017               13.9
    ##  6 2506  Arjeplog    2017               NA  
    ##  7 2505  Arvidsjaur  2017               26.2
    ##  8 1784  Arvika      2017               18  
    ##  9 1882  Askersund   2017               13.1
    ## 10 2084  Avesta      2017               30.5
    ## # … with 1,439 more rows
…
    ## Rows: 1
    ## Columns: 3
    ## $ KnKod    <chr> "2023"
    ## $ KnNamn   <chr> "Malung"
    ## $ geometry <MULTIPOLYGON [m]> MULTIPOLYGON (((376107.9 67...

``` r
# Kollar upp vad kommunen heter i denna tabell
kommun_allt %>%
  filter(code == "2023") %>%
  select(name)
```

    ## # A tibble: 54 × 1
    ##    name        
    ##    <chr>       
    ##  1 Malung-Sälen
    ##  2 Malung-Sälen
    ##  3 Malung-Sälen
    ##  4 Malung-Sälen
    ##  5 Malung-Sälen
    ##  6 Malung-Sälen
    ##  7 Malung-Sälen
    ##  8 Malung-Sälen
    ##  9 Malung-Sälen
    ## 10 Malung-Sälen
    ## # … with 44 more rows
…
-   **Kombination till en tabell**

``` r
# Tabellerna sammanfogas med all dess information utifrån keys
tunnelbana <- Line %>%
  full_join(LinePlatform, by = "LineNumber") %>%
  full_join(Platform, by = "PlatformNumber") %>%
  # För vissa rader saknas det information, de tar vi bort
  filter(!is.na(LineNumber))

tunnelbana
```

    ## # A tibble: 407 × 7
    ##    LineNumber LineName   PlatformNumber Direction StationName Longitude Latitude
    ##         <dbl> <chr>               <dbl>     <dbl> <chr>           <dbl>    <dbl>
    ##  1         10 tunnelban…           3031         1 Kungsträdg…      18.1     59.3
    ##  2         10 tunnelban…           3051         1 T-Centralen      18.1     59.3
    ##  3         10 tunnelban…           3131         1 Rådhuset         18.0     59.3
    ##  4         10 tunnelban…           3151         1 Fridhemspl…      18.0     59.3
    ##  5         10 tunnelban…           3161         1 Stadshagen       18.0     59.3
    ##  6         10 tunnelban…           3201         1 Västra sko…      18.0     59.3
    ##  7         10 tunnelban…           3411         1 Huvudsta         18.0     59.3
    ##  8         10 tunnelban…           3421         1 Solna stra…      18.0     59.4
    ##  9         10 tunnelban…           3431         1 Sundbyberg…      18.0     59.4
    ## 10         10 tunnelban…           3441         1 Duvbo            18.0     59.4
    ## # … with 397 more rows
…
