…
#testar att den fungerar
get_temp(159880)
```

    ## # A tibble: 3,129 × 4
    ##    station date       time     temp 
    ##    <chr>   <chr>      <chr>    <chr>
    ##  1 159880  2022-04-03 01:00:00 -6.3 
    ##  2 159880  2022-04-03 02:00:00 -7.0 
    ##  3 159880  2022-04-03 03:00:00 -7.4 
    ##  4 159880  2022-04-03 04:00:00 -7.6 
    ##  5 159880  2022-04-03 05:00:00 -8.8 
    ##  6 159880  2022-04-03 06:00:00 -7.3 
    ##  7 159880  2022-04-03 07:00:00 -5.3 
    ##  8 159880  2022-04-03 08:00:00 -3.7 
    ##  9 159880  2022-04-03 09:00:00 -3.0 
    ## 10 159880  2022-04-03 10:00:00 -3.1 
    ## # … with 3,119 more rows
…
  low <- temp_station %>%
    group_by(date, station) %>%
    filter(temp < mintemp) 

#Vi vill endast ha de datum i grupp "high" som inte finns i "low"
  anti_join(high, low, by = "date")
}

#testar funktion
tropical_dates(108320)
```

    ## # A tibble: 168 × 4
    ## # Groups:   date, station [7]
    ##    station date       time      temp
    ##    <chr>   <chr>      <chr>    <dbl>
    ##  1 108320  2022-06-26 00:00:00  19.6
    ##  2 108320  2022-06-26 01:00:00  18.7
    ##  3 108320  2022-06-26 02:00:00  18.4
    ##  4 108320  2022-06-26 03:00:00  18.7
    ##  5 108320  2022-06-26 04:00:00  19.7
    ##  6 108320  2022-06-26 05:00:00  20.8
    ##  7 108320  2022-06-26 06:00:00  22.1
    ##  8 108320  2022-06-26 07:00:00  24.8
    ##  9 108320  2022-06-26 08:00:00  25.5
    ## 10 108320  2022-06-26 09:00:00  26  
    ## # … with 158 more rows
…
